{
	"id": "7dead68a-bfc6-4976-a946-e5c5804ebdd4",
	"name": "railstemplate_alpha",
	"values": [
		{
			"key": "API_URL",
			"value": "https://api.railstemplate.alpha.trinitydigital.ru/api/v1",
			"enabled": true
		},
		{
			"key": "API_KEY",
			"value": "",
			"enabled": true
		},
		{
			"key": "API_TOKEN",
			"value": "",
			"enabled": true
		},
		{
			"key": "API_GQL_URL",
			"value": "https://api.railstemplate.alpha.trinitydigital.ru/graphql",
			"enabled": true
		}
	],
	"_postman_variable_scope": "environment",
	"_postman_exported_at": "2019-08-23T17:33:21.087Z",
	"_postman_exported_using": "Postman/7.3.5"
}